"uuid","label"
"cadets-e3_b1adcd7d-3454-3c4f-ac04-225822a7c674","AdmSubject::Node"
"cadets-e3_542e49cf-6801-3e0b-8735-0605ecff4fc2","AdmSubject::Node"
"cadets-e3_8843cec4-6f5d-3cfd-806f-aea9bccba9ee","AdmSubject::Node"
"cadets-e3_c42cb71a-a423-3fae-9189-d44e0699044a","AdmSubject::Node"
"cadets-e3_74a68f16-037c-3f9a-9eb3-f3c48870371c","AdmSubject::Node"
"cadets-e3_31bb4ede-f2ae-3958-96c3-7d7a05f21609","AdmSubject::Node"
"cadets-e3_8843cec4-6f5d-3cfd-806f-aea9bccba9ee","AdmSubject::Node"
"cadets-e3_ba8ad3d8-b892-3eda-a24a-aa3e3d3d86b1","AdmSubject::Node"
"cadets-e3_baf98873-4f79-37ba-b2dc-12c330912084","AdmSubject::Node"
"cadets-e3_f80a002f-d5c4-3acc-b2e6-a5cdb00deb71","AdmSubject::Node"
"cadets-e3_7bfa0d35-8c6e-34f0-9ec5-f935a7e35a51","AdmSubject::Node"
"cadets-e3_9c629076-0dde-38b0-8771-d5428cc6d263","AdmSubject::Node"
